[
    {
        "idUsuario": 1,
        "first_name": "Meredith",
        "last_name": "Digman",
        "email": "mdigman0@imgur.com",
        "password": "d3CVffXO1lg"
    },
    {
        "idUsuario": 2,
        "first_name": "Gracie",
        "last_name": "Josephsen",
        "email": "gjosephsen1@com.com",
        "password": "GGNLc9rW"
    },
    {
        "idUsuario": 3,
        "first_name": "Minnaminnie",
        "last_name": "Dowdeswell",
        "email": "mdowdeswell2@wordpress.org",
        "password": "jAFHfCdAC"
    },
    {
        "idUsuario": 4,
        "first_name": "Marcella",
        "last_name": "McCahey",
        "email": "mmccahey3@telegraph.co.uk",
        "password": "W8LGEHN3ja9A"
    },
    {
        "idUsuario": 5,
        "first_name": "Noel",
        "last_name": "Paal",
        "email": "npaal4@infoseek.co.jp",
        "password": "I30BWXa"
    },
    {
        "idUsuario": 6,
        "first_name": "Bessy",
        "last_name": "Izakov",
        "email": "bizakov5@t.co",
        "password": "PYtM5Dq"
    },
    {
        "idUsuario": 7,
        "first_name": "Lisabeth",
        "last_name": "Crossdale",
        "email": "lcrossdale6@berkeley.edu",
        "password": "mmGrFQ9hFDm"
    },
    {
        "idUsuario": 8,
        "first_name": "Guilbert",
        "last_name": "Boarer",
        "email": "gboarer7@stanford.edu",
        "password": "N9XH56"
    },
    {
        "idUsuario": 9,
        "first_name": "Farrel",
        "last_name": "Bignell",
        "email": "fbignell8@discuz.net",
        "password": "PRfhC7"
    },
    {
        "idUsuario": 10,
        "first_name": "Mina",
        "last_name": "Restorick",
        "email": "mrestorick9@exblog.jp",
        "password": "63jQTY4gpT"
    },
    {
        "idUsuario": 11,
        "first_name": "Wilmette",
        "last_name": "Greendale",
        "email": "wgreendalea@hugedomains.com",
        "password": "d5ucOt"
    },
    {
        "idUsuario": 12,
        "first_name": "Sela",
        "last_name": "Forrington",
        "email": "sforringtonb@1und1.de",
        "password": "jfLEvgbzWHjK"
    },
    {
        "idUsuario": 13,
        "first_name": "Dorree",
        "last_name": "Swarbrigg",
        "email": "dswarbriggc@bing.com",
        "password": "g7HCV6q"
    },
    {
        "idUsuario": 14,
        "first_name": "Sherill",
        "last_name": "Yushin",
        "email": "syushind@cnn.com",
        "password": "1VF4OiOpBt"
    },
    {
        "idUsuario": 15,
        "first_name": "Yanaton",
        "last_name": "Quittonden",
        "email": "yquittondene@ustream.tv",
        "password": "y97srP6"
    },
    {
        "idUsuario": 16,
        "first_name": "Edsel",
        "last_name": "Allsep",
        "email": "eallsepf@domainmarket.com",
        "password": "NihUDDJaoKe"
    },
    {
        "idUsuario": 17,
        "first_name": "Marguerite",
        "last_name": "Applewhite",
        "email": "mapplewhiteg@webeden.co.uk",
        "password": "1g3DXVSt"
    },
    {
        "idUsuario": 18,
        "first_name": "Irita",
        "last_name": "Kilford",
        "email": "ikilfordh@cnn.com",
        "password": "iVPyB5M"
    },
    {
        "idUsuario": 19,
        "first_name": "Leanor",
        "last_name": "Brugmann",
        "email": "lbrugmanni@imdb.com",
        "password": "UM1arupvo"
    },
    {
        "idUsuario": 20,
        "first_name": "Isaak",
        "last_name": "Dodimead",
        "email": "idodimeadj@guardian.co.uk",
        "password": "pz3SJ4Qyq"
    },
    {
        "idUsuario": 21,
        "first_name": "Meredeth",
        "last_name": "Macbane",
        "email": "mmacbanek@infoseek.co.jp",
        "password": "CerLvUdyrs"
    },
    {
        "idUsuario": 22,
        "first_name": "Lynnette",
        "last_name": "Bonney",
        "email": "lbonneyl@flavors.me",
        "password": "CnowftqiKGE"
    },
    {
        "idUsuario": 23,
        "first_name": "Rem",
        "last_name": "Ladlow",
        "email": "rladlowm@goo.ne.jp",
        "password": "Qa75pNFIseJi"
    },
    {
        "idUsuario": 24,
        "first_name": "Amble",
        "last_name": "Lindback",
        "email": "alindbackn@reverbnation.com",
        "password": "uTJzTJL1E"
    },
    {
        "idUsuario": 25,
        "first_name": "Jenine",
        "last_name": "Coppin",
        "email": "jcoppino@skype.com",
        "password": "UDUZ6gf"
    },
    {
        "idUsuario": 26,
        "first_name": "Bianka",
        "last_name": "Dash",
        "email": "bdashp@berkeley.edu",
        "password": "k1j1N5"
    },
    {
        "idUsuario": 27,
        "first_name": "Burtie",
        "last_name": "Sommerled",
        "email": "bsommerledq@examiner.com",
        "password": "qQ4ZszY8oE"
    },
    {
        "idUsuario": 28,
        "first_name": "Donnajean",
        "last_name": "Bracknall",
        "email": "dbracknallr@gmpg.org",
        "password": "pGhbblEV"
    },
    {
        "idUsuario": 29,
        "first_name": "Gianna",
        "last_name": "Bodicum",
        "email": "gbodicums@va.gov",
        "password": "nDaTkg"
    },
    {
        "idUsuario": 30,
        "first_name": "Drusi",
        "last_name": "Lamberteschi",
        "email": "dlamberteschit@yellowpages.com",
        "password": "zdWlYZP28VG"
    },
    {
        "idUsuario": 31,
        "first_name": "Katerine",
        "last_name": "Bazley",
        "email": "kbazleyu@dell.com",
        "password": "BplzMfNwUpY2"
    },
    {
        "idUsuario": 32,
        "first_name": "Christi",
        "last_name": "Yellowlees",
        "email": "cyellowleesv@shop-pro.jp",
        "password": "olDFGrmRSr"
    },
    {
        "idUsuario": 33,
        "first_name": "Luis",
        "last_name": "Grafom",
        "email": "lgrafomw@ustream.tv",
        "password": "WQPrrO"
    },
    {
        "idUsuario": 34,
        "first_name": "Fanechka",
        "last_name": "Komorowski",
        "email": "fkomorowskix@yelp.com",
        "password": "5aoirUX"
    },
    {
        "idUsuario": 35,
        "first_name": "Noelani",
        "last_name": "Clell",
        "email": "nclelly@youtu.be",
        "password": "27owxmXQx5It"
    },
    {
        "idUsuario": 36,
        "first_name": "Kelli",
        "last_name": "Lammerts",
        "email": "klammertsz@bigcartel.com",
        "password": "REklQLUpsREv"
    },
    {
        "idUsuario": 37,
        "first_name": "Casar",
        "last_name": "O'Curneen",
        "email": "cocurneen10@wunderground.com",
        "password": "14cKXMHhb"
    },
    {
        "idUsuario": 38,
        "first_name": "Alexander",
        "last_name": "O'Gready",
        "email": "aogready11@sbwire.com",
        "password": "UtX6rMdHB1Zq"
    },
    {
        "idUsuario": 39,
        "first_name": "Alberto",
        "last_name": "Quartley",
        "email": "aquartley12@qq.com",
        "password": "Xv6mXeNP74I"
    },
    {
        "idUsuario": 40,
        "first_name": "Ludwig",
        "last_name": "Schimoni",
        "email": "lschimoni13@prlog.org",
        "password": "hcHffDsOHZm9"
    },
    {
        "idUsuario": 41,
        "first_name": "Lesya",
        "last_name": "Alben",
        "email": "lalben14@about.com",
        "password": "t3yK2Y"
    },
    {
        "idUsuario": 42,
        "first_name": "Sammy",
        "last_name": "Brookbank",
        "email": "sbrookbank15@squidoo.com",
        "password": "xJkOQ8Erw1"
    },
    {
        "idUsuario": 43,
        "first_name": "Nancie",
        "last_name": "Pinnijar",
        "email": "npinnijar16@freewebs.com",
        "password": "Iz6DofxnB"
    },
    {
        "idUsuario": 44,
        "first_name": "Micki",
        "last_name": "Prime",
        "email": "mprime17@dropbox.com",
        "password": "t59wlaH"
    },
    {
        "idUsuario": 45,
        "first_name": "Phillipe",
        "last_name": "Pettwood",
        "email": "ppettwood18@geocities.jp",
        "password": "KHoRIHFOtDc"
    },
    {
        "idUsuario": 46,
        "first_name": "Karlan",
        "last_name": "Denge",
        "email": "kdenge19@devhub.com",
        "password": "mNP7rBoH"
    },
    {
        "idUsuario": 47,
        "first_name": "Bobbie",
        "last_name": "Rawlinson",
        "email": "brawlinson1a@typepad.com",
        "password": "gWB4cR"
    },
    {
        "idUsuario": 48,
        "first_name": "Toinette",
        "last_name": "Durand",
        "email": "tdurand1b@army.mil",
        "password": "yApf9yrZ"
    },
    {
        "idUsuario": 49,
        "first_name": "Sadye",
        "last_name": "Drayn",
        "email": "sdrayn1c@comsenz.com",
        "password": "z4QWy6pnv"
    },
    {
        "idUsuario": 50,
        "first_name": "Lucian",
        "last_name": "Cescon",
        "email": "lcescon1d@jimdo.com",
        "password": "1j6ouTY093"
    }
]